ltpc@6467233363~?
road@5873566906~http://dbpedia.org/property/road
ca@4510701782~http://dbpedia.org/class/yago/Calcium114632648
munich@1553052890~http://dbpedia.org/resource/Munich
hot@3409935869~?
butterflies@415703823~?
grass@5199386495~http://dbpedia.org/class/yago/Supergrass110675481
timelapse@6231063058~?
signs@4393966109~?
kalamariver@562014432~?
verde@6661652645~?
falls@2058150231~http://dbpedia.org/class/yago/Waterfall109475292
indonesia@4372483967~http://dbpedia.org/resource/Indonesia
matsui@6265594774~?
laguna@2981121304~http://dbpedia.org/resource/Laguna_(province)
hospital@280811593~http://dbpedia.org/class/yago/Hospital103540595
cambodia@259574368~http://dbpedia.org/resource/Cambodia
nieve@5224830680~?
ford@6588920937~http://dbpedia.org/class/yago/Ford109283623
sevilla@4737039417~http://dbpedia.org/resource/Seville
halloween@5152501213~?
ixus@5379307998~?
argentina@5156740550~http://dbpedia.org/resource/Argentina
derbyshire@5062258097~http://dbpedia.org/resource/Derbyshire
world@4776647527~http://dbpedia.org/class/yago/World109480809
gaztetxe@6194731886~?
mountain@5410246932~http://dbpedia.org/resource/Mountain,_Wisconsin
family@5959480791~http://dbpedia.org/class/yago/Family108078020
maemo@5640829626~?
lesung@5356306199~?
hotrod@5960769873~?
anime@5599128023~?
carnival@3313517262~http://dbpedia.org/class/yago/Carnival100519333
game@6163809369~http://dbpedia.org/class/yago/Plot105907682
september@258148094~?
cycling@6199273914~http://dbpedia.org/class/yago/Cycling100451370
taiwan@424190281~http://dbpedia.org/resource/Taiwan
gay@5827950406~http://dbpedia.org/class/yago/Homosexual110182913
elgloria@6784284484~?
county@6717229367~http://dbpedia.org/class/yago/QueenslandCounties
toronto@5628734618~http://dbpedia.org/resource/Toronto
cidade@4292959352~?
stacey@1057156867~?
andrea@3518971037~?
slash@4077996305~http://dbpedia.org/class/yago/Solidus106844903
paesaggi@4285349928~?
cat@3057416284~http://dbpedia.org/class/yago/Guy110153414
rugby@4511840474~?
antietam@4788065265~?
rescue@1425585043~http://dbpedia.org/class/yago/Rescue100093483
phone@5342357750~http://dbpedia.org/class/yago/Phone107111047
agua@2657588395~?
gente@3639796926~?
nov@2094089891~?
cathedral@659007652~http://dbpedia.org/class/yago/Cathedral102984203
colors@6848255844~http://dbpedia.org/class/yago/Colors103072056
sunlight@4629480270~http://dbpedia.org/class/yago/Sunlight111485367
panorama@4341860258~http://dbpedia.org/class/yago/Panorama103884072
playground@411860723~http://dbpedia.org/class/yago/Playground103963645
snowdonia@512686076~?
mini@4002460460~http://dbpedia.org/class/yago/Miniskirt103770439
cicada@2662505192~http://dbpedia.org/class/yago/Cicada102256656
daddynewt@2751244821~?
watercolor@6055913383~http://dbpedia.org/class/yago/Watercolor114991319
montenegro@5997660442~http://dbpedia.org/resource/Montenegro
students@4964330064~http://dbpedia.org/property/students
holy@2552454800~http://dbpedia.org/class/yago/HolyPlace108585056
fruits@4402219841~?
camdentown@3095787453~?
airshow@5027829896~?
chicken@803854796~http://dbpedia.org/class/yago/Chicken107644967
brussels@6178189247~http://dbpedia.org/resource/Brussels
textura@3882473897~?
remodel@3950845500~?
italia@4325150622~?
roses@6862498109~?
iran@5373845170~http://dbpedia.org/resource/Iran
roadtrip@5229808220~?
insectos@4829685137~?
reflexions@5083342361~?
habitus@2855121119~http://dbpedia.org/class/yago/Physique104998530
theblockheads@5921492294~?
fdsflickrtoys@1406532728~?
bayern@4134505336~http://dbpedia.org/resource/Bavaria
countryside@5581958068~http://dbpedia.org/resource/Countryside,_Illinois
elsalvador@4905505041~?
bus@2842847609~http://dbpedia.org/class/yago/Bus102924554
food@5459462750~http://dbpedia.org/class/yago/Food100021265
devon@3895227224~http://dbpedia.org/resource/Devon
mill@2625240225~http://dbpedia.org/class/yago/IndianaMills
jellyfish@5947277013~http://dbpedia.org/class/yago/Jellyfish101910747
utah@2616672052~http://dbpedia.org/resource/Utah
chrisvallephotography@6292068234~?
basketball@4469199403~http://dbpedia.org/class/yago/Basketball102802426
brick@1458635269~http://dbpedia.org/class/yago/Brick109874428
mobile@6858238387~http://dbpedia.org/resource/Mobile,_Alabama
indianfishcurry@5704474760~?
gmw@1234125430~?
garden@6485861247~http://dbpedia.org/class/yago/HerbGardens
feedingstation@6564273659~?
