train@293116791~http://dbpedia.org/class/yago/String108459648
georgia@6706294185~http://dbpedia.org/resource/Georgia_(country)
initiallettersculptures@2847786186~?
gracie@3971720590~?
burningman@6129407922~?
oasis@2485081697~http://dbpedia.org/class/yago/Oasis108506496
fritz@5603429426~?
hardhat@4028347106~?
campagna@2820176061~http://dbpedia.org/resource/Campagna
berkshire@3411545505~?
jakarta@5566657471~http://dbpedia.org/resource/Jakarta
catedral@6736248627~?
gum@3090011330~http://dbpedia.org/class/yago/Gums
me@5769039885~?
birmingham@5461496612~http://dbpedia.org/resource/Birmingham
divers@6132340081~?
houses@2806677685~?
tennessee@6231250293~http://dbpedia.org/resource/Tennessee
adriano@2271606093~?
arkansas@6275060632~http://dbpedia.org/resource/Arkansas
schnee@5360351606~?
groningen@6732279057~http://dbpedia.org/resource/Groningen_(province)
sujith@2352773517~?
sacoladelona@6667777275~?
wasser@5061253205~?
neworleans@6267599605~?
egypt@2537539826~http://dbpedia.org/resource/Egypt
seascape@6684273343~http://dbpedia.org/class/yago/Seascape108647049
max@5804005919~?
michigan@3699388018~http://dbpedia.org/resource/Michigan
northcarolina@3714945808~?
millardsheets@6791418276~?
francia@2793128249~?
protest@6222696911~http://dbpedia.org/class/yago/Protest107210225
david@6821667076~?
costa@4170220172~http://dbpedia.org/class/yago/Rib105279026
instant@4356510995~http://dbpedia.org/class/yago/Moment115244650
spiderman@214729902~?
station@5193717145~http://dbpedia.org/class/yago/Station104306080
disneyland@5167646452~?
ultimatefrisbee@3457797517~?
race@4894602465~http://dbpedia.org/class/yago/Race107458453
hotel@6837943534~http://dbpedia.org/class/yago/Hotel103542333
nightshot@1676940431~?
fashion@3683585978~http://dbpedia.org/class/yago/Fashion105750657
texas@4824263252~http://dbpedia.org/resource/Texas
capoeira@5275477500~?
fiesta@6203650707~http://dbpedia.org/class/yago/Fete107449862
washington@5925766320~http://dbpedia.org/resource/Washington,_Georgia
transportation@6797591173~http://dbpedia.org/class/yago/Exile100207761
skiing@4144003074~http://dbpedia.org/class/yago/Skiing100440747
illustration@6816708780~http://dbpedia.org/class/yago/Exemplification106880533
erindrewitzcom@4034197012~?
hong@2334736471~?
wandeling@2145966503~?
november@6354463063~?
casamento@634291134~?
sailing@529850182~http://dbpedia.org/class/yago/Seafaring100314469
sticker@3815474001~http://dbpedia.org/class/yago/GummedLabel107272545
mongarlowe@2097075822~?
lumix@288697901~?
fuji@5990281737~http://dbpedia.org/resource/Fuji,_Shizuoka
alltypesoftransport@6226799489~?
croce@5352192531~?
croatia@280689119~http://dbpedia.org/resource/Croatia
william@5489818354~?
arboles@6939152681~?
pool@3827201235~http://dbpedia.org/resource/Pool_Department
sand@5959408613~http://dbpedia.org/class/yago/Sand115019030
etrusco@5563882678~?
thames@4993649632~?
cats@5683863175~?
consonno@5933348269~?
villarslesdombes@3570401805~?
pasila@6920582049~?
animal@4640981529~http://dbpedia.org/class/yago/ExtinctHawaiianAnimals
angola@6438048091~http://dbpedia.org/resource/Angola,_Indiana
pittsburghpassion@6866669716~?
wd@5614357457~?
coneyisland@2600271470~?
lightpainting@3941995949~?
cambridge@6822937483~http://dbpedia.org/resource/Cambridge,_Iowa
graffiti@3172076893~http://dbpedia.org/class/yago/Graffito103451798
musica@4532483625~?
flickraward@5461047505~?
cup@5194090081~http://dbpedia.org/class/yago/NationalFootball(soccer)LeagueCups
rabbit@4507969627~http://dbpedia.org/class/yago/Rabbit107666521
abstract@2396021452~http://dbpedia.org/class/yago/Abstraction105854150
pacific@6785190829~http://dbpedia.org/resource/Pacific,_Missouri
archaeology@5249818615~http://dbpedia.org/class/yago/Archeology106144081
railroad@5920113249~http://dbpedia.org/class/yago/Railway104048568
hamptons@240169698~?
hungary@6413970335~http://dbpedia.org/resource/Hungary
dragon@5464990113~http://dbpedia.org/class/yago/Dragon110029729
monochrome@2722684365~http://dbpedia.org/class/yago/BlackAndWhite102846399
leaves@5281824454~?
smithsonian@4752801301~?
colombia@766797910~http://dbpedia.org/resource/Colombia
fuentesdelnarcea@4629850107~?
cessna@6529961739~?
