ltpc@6467233363
road@5873566906
ca@4510701782
munich@1553052890
hot@3409935869
butterflies@415703823
grass@5199386495
timelapse@6231063058
signs@4393966109
kalamariver@562014432
verde@6661652645
falls@2058150231
indonesia@4372483967
matsui@6265594774
laguna@2981121304
hospital@280811593
cambodia@259574368
nieve@5224830680
ford@6588920937
sevilla@4737039417
halloween@5152501213
ixus@5379307998
argentina@5156740550
derbyshire@5062258097
world@4776647527
gaztetxe@6194731886
mountain@5410246932
family@5959480791
maemo@5640829626
lesung@5356306199
hotrod@5960769873
anime@5599128023
carnival@3313517262
game@6163809369
september@258148094
cycling@6199273914
taiwan@424190281
gay@5827950406
elgloria@6784284484
county@6717229367
toronto@5628734618
cidade@4292959352
stacey@1057156867
andrea@3518971037
slash@4077996305
paesaggi@4285349928
cat@3057416284
rugby@4511840474
antietam@4788065265
rescue@1425585043
phone@5342357750
agua@2657588395
gente@3639796926
nov@2094089891
cathedral@659007652
colors@6848255844
sunlight@4629480270
panorama@4341860258
playground@411860723
snowdonia@512686076
mini@4002460460
cicada@2662505192
daddynewt@2751244821
watercolor@6055913383
montenegro@5997660442
students@4964330064
holy@2552454800
fruits@4402219841
camdentown@3095787453
airshow@5027829896
chicken@803854796
brussels@6178189247
textura@3882473897
remodel@3950845500
italia@4325150622
roses@6862498109
iran@5373845170
roadtrip@5229808220
insectos@4829685137
reflexions@5083342361
habitus@2855121119
theblockheads@5921492294
fdsflickrtoys@1406532728
bayern@4134505336
countryside@5581958068
elsalvador@4905505041
bus@2842847609
food@5459462750
devon@3895227224
mill@2625240225
jellyfish@5947277013
utah@2616672052
chrisvallephotography@6292068234
basketball@4469199403
brick@1458635269
mobile@6858238387
indianfishcurry@5704474760
gmw@1234125430
garden@6485861247
feedingstation@6564273659