bench@1988720632
painterly@6244052785
house@6003662201
heliar@2407663299
guy@3052315073
closeup@425974823
reunion@4108781376
honduras@3393322606
bar@2424003660
playlouder@2592994614
israel@6241533024
horses@5711400517
chess@5124983662
candles@2158664555
bio@3326321247
daisies@3998320652
nt@2777361415
bmw@2340927531
batonrouge@5681757591
heritage@4609310255
oktober@6203603606
lighting@3098792763
navidad@6601078667
fid@5570937808
sada@2824495071
breerphotosflickrcom@3179929025
orchid@6016011810
slovenia@5097310621
musician@4972215176
rapallo@5961506427
atardecer@5055025119
jazz@1169252232
roma@6817298711
live@180378106
touristes@6396576925
hawaii@4174162643
dopracy@6167113332
share@3886674897
headstones@6663016251
home@421770106
tower@3552994921
vacations@741437283
yorkshiresculpturepark@4784157118
ucsf@6679876655
perpendicular@6534434957
mer@4902594812
ballroom@6787892893
hortzmugateatroa@2692155914
shachar@4757763805
bloomington@6786034064
maya@6682431865
june@4751353766
butterfly@3699391559
sydney@6531304813
romania@6938511793
crop@6541678899
face@6732983345
wine@3757098142
mudlake@3601811446
milan@5580138978
paisajes@2531668080
original@3124031591
southafrica@3341926691
carp@33733452
montrealbotanicalgardens@50513689
dom@6784485931
electricity@6994343269
bestportraitsaoi@5734085163
wallstreetprotest@6282041818
varsity@3955514745
shanghai@5121365486
cyclingforlibraries@6203034988
waltdisneyworld@2355578885
jacob@6253031280
deanandquinn@5003971111
anna@5359041069
shirt@260386064
boston@3439571145
colours@4915855065
cassy@6333526618
flying@6622163037
chris@5825057278
skulptur@2511667695
mars@2316377376
kenya@3522097384
brown@6540061961
model@1448152127
earthquake@5637570004
hiv@5431245242
melbourne@1295666826
potato@3915315097
saintmartiniletpinel@6826883990
roskildefestival@2646012578
feet@4311461227
unitedstates@102513617
diy@4381304771
finland@6202894171
get@6092304701
ontheset@6942592423
nc@470529870